{
    "default": {
        "title": "Digital Business Academy",
        "description": "",
        "keywords": ""
    },

    "home": {
        "title": "Digital Business Academy - Home",
        "description": "",
        "keywords": ""
    }
}
